ProjectId,MeasureId,et_siteID,et_sitenumber,et_parentsiteId,et_parentsitenumber,ProjectTitle,et_streetaddress,et_city,et_state,et_zipplus4,et_uspsbarcode,et_county,et_geoid,et_tradeallyregion,WeatherStation,ElectricProvider,GasProvider,et_sitetype,EvaluationCode,EvaluationDescription,BCReportDescription,ProductCode,ProductDescription,ProductVersionId,MinRecognizedDate,InstalledDate,InstallCost,MeasureIncentive,ElectricSponsor,ElectricReportable,SectorCode,ProgramCode,ProgramDescription,ProjectTrackDescription,ProjectType,ProjectSubType,ProjectStatus,InstallerCompany,InstallerCompanyName,InstallerContact,InstallerContactName,WorkingKwh,ReportableKwh,DefaultKwh,LifeYears,Qty,HVACMain,HeatingSystemMain,HeatingFuel,MultipleHeatingFuels,WaterHeatingSystemMain,WaterHeatingFuel,MultipleWaterHeatingFuels,YearBuilt,SqFt,NumberOfUnits,NumberOfFloors,Foundation,RentalFlag,MarketSector,MarketType,MarketSubType,ProjectNotes,MeasureNotes,HeatSysReplaced,Make,Model,OutdoorQty,CapacityBTU,HSPF,SEER,IndoorQty,Unit1Model,GasLineToHome,SecHeatFuel,DHW_kwh,Duct_kwh,Light_kwh,AirSeal_kwh,windows_kwh,Insulate_kwh,Appliance_kwh,OtherHeatPump_kwh,Other_kwh,TStat_kwh,KWH2010,KWH2011,KWH2012,KWH2013,KWH2014,KWH2015,KWH2016,KWH2017,KWH2018
P00001111548,2862891,AD16A421-7FCF-E411-B4B1-00155D017F3F,411894,,,69539 E Fairway Ave,69539 E Fairway Ave,Welches,OR,97067-8767,9.70679E+11,Clackamas,4.1005E+14,Portland Metro,9,PGE,,Structure,DHP,Ductless heat pump,HVAC,DHPHZ1EZ,"DHP w/ Ele Zonal Heat, Zone 1",1971,12/18/2015,10/15/2015,4574,800,PGE,Yes,RES,HES,Existing Single Family,PMC Webform Entry,HVAC,HVAC,COMPLETE,10017089,"Honke Heating & Air Conditioning, Inc.",0,,2869,3156,2153,18,1,,Unspecified Electric Heating System,ELE,No,Unspecified Electric Water Heater,ELE,No,1978,1888,1,2,Slab-on-Grade,0,Residential,Single Family Home,Site Built Home,,,Zonal Electric - Baseboards,Mitsubishi,MUZ-FH12NA,1,12000,12.5,26.1,1,MSZ-FH12NA,,,941,0,0,0,0,0,100,0,0,0,0,941,0,100,0,0,0,0,0
P00001154641,3260621,F03524F9-F40A-E611-80D5-00155D010F47,683285,,,12411 S New Era Rd,12411 S New Era Rd,Oregon City,OR,97045-9719,9.7046E+11,Clackamas,4.1005E+14,Portland Metro,9,PGE,,,DHP,Ductless heat pump,HVAC,DHPHZ1EZ,"DHP w/ Ele Zonal Heat, Zone 1",1971,5/13/2016,3/29/2016,21570,800,PGE,Yes,RES,HES,Existing Single Family,PMC Webform Entry,HVAC,HVAC,COMPLETE,10002364,Roth Heating & Cooling,0,,2153,2368,2153,18,1,,Unspecified Electric Heating System,ELE,No,Unspecified Electric Water Heater,ELE,No,1900,1800,,2,,0,,,,,,Zonal Electric - Baseboards,Daikin,3MXS24NMVJU,2,39500,12.5,,5,FTXS15LVJU,NO,NONE,0,0,0,0,0,0,0,0,0,0,0,0,0,0,0,0,0,0,0
